{
	"additionalNodes": [],
	"additionalParameters": {
		"root": {
			"height": 108,
			"width": 216
		}
	},
	"inputs": [],
	"outputs": [],
	"properties": {
		"4nSfrCmfPejq0ZPFtEfFgN7iYXEe3EWv": {
			"height": 92,
			"title": "store",
			"width": 183,
			"x": 1575,
			"y": 50
		},
		"5sMhoJD2sM2MX427yKJ4xgH6DJY5uRi0": {
			"height": 94,
			"title": "store",
			"width": 233,
			"x": 1294,
			"y": -172
		},
		"68XcJR26VwI7G9fWLphfaNuXu6ha3D8w": {
			"height": 60,
			"title": "sequence",
			"width": 143,
			"x": 1009,
			"y": 161
		},
		"Ck5A8toJduqajeci8uskpusNSjFPiQr3": {
			"height": 90,
			"title": "luaCondition",
			"width": 194,
			"x": 1202,
			"y": 174
		},
		"ISEDZw7uc19dpKjxGq8anVWYYb4Sgrm7": {
			"height": 70,
			"title": "roleSplit",
			"width": 202,
			"x": 318,
			"y": 219
		},
		"J6vJ7TSkvkcTydi4pPqg2LWd2UHxE6WF": {
			"height": 54,
			"title": "success",
			"width": 132,
			"x": 858,
			"y": 211
		},
		"XXCtb7XGNWyR3IoIe8REfCuPtDtBOdZT": {
			"height": 90,
			"title": "luaCondition",
			"width": 194,
			"x": 1266,
			"y": 49
		},
		"aMM3lG5UKvn65syDKznpShvM0WmzLw4R": {
			"height": 60,
			"title": "repeat",
			"width": 131,
			"x": 806,
			"y": -21
		},
		"bKLtdqO6FIHBhXKBBt3MkGJFUA4COGfD": {
			"height": 60,
			"title": "repeat",
			"width": 131,
			"x": 806,
			"y": -116
		},
		"gxmVFZopW4ONNMOuhEefZNvGDLqML5qB": {
			"height": 92,
			"title": "store",
			"width": 272,
			"x": 1271,
			"y": -42
		},
		"iwhdKCJz3hVyXggCRDjbo3AF84qKd5wc": {
			"height": 60,
			"title": "sequence",
			"width": 143,
			"x": 999,
			"y": -116
		},
		"omjqSFNgVCiRe9kmYhwZrQNoZkNUwKot": {
			"height": 70,
			"title": "parallel",
			"width": 202,
			"x": 533,
			"y": -56
		},
		"vHjCw8EzkqxH7JVyJwTMYQDxSrue9OGM": {
			"height": 90,
			"title": "Common.relativeMove",
			"width": 490,
			"x": 1440,
			"y": 148
		}
	},
	"roles": [ {
		"categories": [ "nota_polak_intro.commander" ],
		"name": "Role 0"
	}, {
		"categories": [],
		"name": "Role 1"
	} ],
	"root": {
		"children": [ {
			"children": [ {
				"children": [ {
					"children": [ {
						"children": [],
						"id": "5sMhoJD2sM2MX427yKJ4xgH6DJY5uRi0",
						"nodeType": "luaCommand",
						"parameters": [ {
							"name": "var",
							"value": "wind_data_new"
						}, {
							"name": "value",
							"value": "nota_polak_intro.wind()"
						}, {
							"name": "scriptName",
							"value": "store"
						} ],
						"scriptName": "store"
					}, {
						"children": [],
						"id": "gxmVFZopW4ONNMOuhEefZNvGDLqML5qB",
						"nodeType": "luaCommand",
						"parameters": [ {
							"name": "var",
							"value": "wind_changed"
						}, {
							"name": "value",
							"value": "wind_data_new ~= wind_data"
						}, {
							"name": "scriptName",
							"value": "store"
						} ],
						"scriptName": "store"
					}, {
						"children": [ {
							"children": [],
							"id": "4nSfrCmfPejq0ZPFtEfFgN7iYXEe3EWv",
							"nodeType": "luaCommand",
							"parameters": [ {
								"name": "var",
								"value": "wind_data"
							}, {
								"name": "value",
								"value": "wind_data_new"
							}, {
								"name": "scriptName",
								"value": "store"
							} ],
							"scriptName": "store"
						} ],
						"id": "XXCtb7XGNWyR3IoIe8REfCuPtDtBOdZT",
						"nodeType": "luaCondition",
						"parameters": [ {
							"name": "expression",
							"value": "wind_changed == true"
						}, {
							"name": "repeat",
							"value": "true"
						} ]
					} ],
					"id": "iwhdKCJz3hVyXggCRDjbo3AF84qKd5wc",
					"nodeType": "sequence",
					"parameters": []
				} ],
				"id": "bKLtdqO6FIHBhXKBBt3MkGJFUA4COGfD",
				"nodeType": "repeat",
				"parameters": []
			}, {
				"children": [ {
					"children": [ {
						"children": [ {
							"children": [],
							"id": "vHjCw8EzkqxH7JVyJwTMYQDxSrue9OGM",
							"nodeType": "luaCommand",
							"parameters": [ {
								"name": "dist",
								"value": "{ x = wind_data.normDirX*100, z = wind_data.normDirZ*100}"
							}, {
								"name": "fight",
								"value": "false"
							}, {
								"name": "scriptName",
								"value": "Common.relativeMove"
							} ],
							"scriptName": "Common.relativeMove"
						} ],
						"id": "Ck5A8toJduqajeci8uskpusNSjFPiQr3",
						"nodeType": "luaCondition",
						"parameters": [ {
							"name": "expression",
							"value": "wind_changed == true"
						}, {
							"name": "repeat",
							"value": "true"
						} ]
					} ],
					"id": "68XcJR26VwI7G9fWLphfaNuXu6ha3D8w",
					"nodeType": "sequence",
					"parameters": []
				} ],
				"id": "aMM3lG5UKvn65syDKznpShvM0WmzLw4R",
				"nodeType": "repeat",
				"parameters": []
			} ],
			"id": "omjqSFNgVCiRe9kmYhwZrQNoZkNUwKot",
			"nodeType": "parallel",
			"parameters": [ {
				"name": "mode",
				"value": "all-success"
			} ]
		}, {
			"children": [],
			"id": "J6vJ7TSkvkcTydi4pPqg2LWd2UHxE6WF",
			"nodeType": "success",
			"parameters": []
		} ],
		"id": "ISEDZw7uc19dpKjxGq8anVWYYb4Sgrm7",
		"nodeType": "roleSplit",
		"parameters": [ {
			"name": "mode",
			"value": "all-success"
		} ]
	}
}